{
  "project_info": {
    "project_number": "694393423430",
    "firebase_url": "https://vipclub-xi-to-online.firebaseio.com",
    "project_id": "vipclub-xi-to-online",
    "storage_bucket": "vipclub-xi-to-online.appspot.com"
  },
  "client": [
    {
      "client_info": {
        "mobilesdk_app_id": "1:694393423430:android:a513cdad7890a77b1dec47",
        "android_client_info": {
          "package_name": "com.xito.gamebai.tienlenmiennam.online"
        }
      },
      "oauth_client": [
        {
          "client_id": "694393423430-ji4m7r1p30gcqg44lnlf5t0r10m22olk.apps.googleusercontent.com",
          "client_type": 3
        }
      ],
      "api_key": [
        {
          "current_key": "AIzaSyCO-shwR0q4gsbZzusSmq3_ro3TtBbSb1I"
        }
      ],
      "services": {
        "appinvite_service": {
          "other_platform_oauth_client": [
            {
              "client_id": "694393423430-ji4m7r1p30gcqg44lnlf5t0r10m22olk.apps.googleusercontent.com",
              "client_type": 3
            }
          ]
        }
      }
    }
  ],
  "configuration_version": "1"
}